[
  {
    "id": 1,
    "name": "Leanne Graham",
    "username": "Bret",
    "email": "Sincere@april.biz",
    "address": "Kulas Light",
    "suite": "Apt. 556",
    "city": "Gwenborough",
    "zipcode": "92998-3874",
    "phone": "1-770-736-8031 x56442",
    "token": "1-770-736-8031 x56442",
    "website": "hildegard.org",
    "birthday":"2017-01-01",
    "emailGmail":"Sincere@gmail.com",
    "spam":"1",
    "company": {
      "name": "Romaguera-Crona",
      "catchPhrase": "Multi-layered client-server neural-net",
      "bs": "harness real-time e-markets"
    }
  },
  {
    "id": 2,
    "name": "Ervin Howell",
    "username": "Antonette",
    "email": "Shanna@melissa.tv",
    "address": "Victor Plains",
    "suite": "Suite 879",
    "city": "Wisokyburgh",
    "zipcode": "90566-7771",
    "phone": "010-692-6593 x09125",
    "token": "1-770-736-8031 x56442",
    "website": "anastasia.net",
    "birthday":"2017-01-01",
    "emailGmail":"Sincere@gmail.com",
    "spam":"1",
    "company": {
      "name": "Deckow-Crist",
      "catchPhrase": "Proactive didactic contingency",
      "bs": "synergize scalable supply-chains"
    }
  },
  {
    "id": 3,
    "name": "Clementine Bauch",
    "username": "Samantha",
    "email": "Nathan@yesenia.net",
    "address": "Douglas Extension",
    "suite": "Suite 847",
    "city": "McKenziehaven",
    "zipcode": "59590-4157",
    "phone": "1-463-123-4447",
    "token": "1-770-736-8031 x56442",
    "website": "ramiro.info",
    "birthday":"2017-01-01",
    "emailGmail":"Sincere@gmail.com",
    "spam":"1",
    "company": {
      "name": "Romaguera-Jacobson",
      "catchPhrase": "Face to face bifurcated interface",
      "bs": "e-enable strategic applications"
    }
  },
  {
    "id": 4,
    "name": "Patricia Lebsack",
    "username": "Karianne",
    "email": "Julianne.OConner@kory.org",
    "address": "Hoeger Mall",
    "suite": "Apt. 692",
    "city": "South Elvis",
    "zipcode": "53919-4257",
    "phone": "493-170-9623 x156",
    "token": "1-770-736-8031 x56442",
    "website": "kale.biz",
    "birthday":"2017-01-01",
    "emailGmail":"Sincere@gmail.com",
    "spam":"1",
    "company": {
      "name": "Robel-Corkery",
      "catchPhrase": "Multi-tiered zero tolerance productivity",
      "bs": "transition cutting-edge web services"
    }
  },
  {
    "id": 5,
    "name": "Chelsey Dietrich",
    "username": "Kamren",
    "email": "Lucio_Hettinger@annie.ca",
    "address": "Skiles Walks",
    "suite": "Suite 351",
    "city": "Roscoeview",
    "zipcode": "33263",
    "phone": "(254)954-1289",
    "website": "demarco.info",
    "birthday":"2017-01-01",
    "emailGmail":"Sincere@gmail.com",
    "spam":"1",
    "company": {
      "name": "Keebler LLC",
      "catchPhrase": "User-centric fault-tolerant solution",
      "bs": "revolutionize end-to-end systems"
    }
  },
  {
    "id": 6,
    "name": "Mrs. Dennis Schulist",
    "username": "Leopoldo_Corkery",
    "email": "Karley_Dach@jasper.info",
    "address": "Norberto Crossing",
    "suite": "Apt. 950",
    "city": "South Christy",
    "zipcode": "23505-1337",
    "phone": "1-477-935-8478 x6430",
    "token": "1-770-736-8031 x56442",
    "website": "ola.org",
    "birthday":"2017-01-01",
    "emailGmail":"Sincere@gmail.com",
    "spam":"1",
    "company": {
      "name": "Considine-Lockman",
      "catchPhrase": "Synchronised bottom-line interface",
      "bs": "e-enable innovative applications"
    }
  },
  {
    "id": 7,
    "name": "Kurtis Weissnat",
    "username": "Elwyn.Skiles",
    "email": "Telly.Hoeger@billy.biz",
    "address": "Rex Trail",
    "suite": "Suite 280",
    "city": "Howemouth",
    "zipcode": "58804-1099",
    "phone": "210.067.6132",
    "website": "elvis.io",
    "birthday":"2017-01-01",
    "emailGmail":"Sincere@gmail.com",
    "spam":"1",
    "company": {
      "name": "Johns Group",
      "catchPhrase": "Configurable multimedia task-force",
      "bs": "generate enterprise e-tailers"
    }
  },
  {
    "id": 8,
    "name": "Nicholas Runolfsdottir V",
    "username": "Maxime_Nienow",
    "email": "Sherwood@rosamond.me",
    "address": "Ellsworth Summit",
    "suite": "Suite 729",
    "city": "Aliyaview",
    "zipcode": "45169",
    "phone": "586.493.6943 x140",
    "token": "1-770-736-8031 x56442",
    "website": "jacynthe.com",
    "birthday":"2017-01-01",
    "emailGmail":"Sincere@gmail.com",
    "spam":"1",
    "company": {
      "name": "Abernathy Group",
      "catchPhrase": "Implemented secondary concept",
      "bs": "e-enable extensible e-tailers"
    }
  },
  {
    "id": 9,
    "name": "Glenna Reichert",
    "username": "Delphine",
    "email": "Chaim_McDermott@dana.io",
    "address": "Dayna Park",
    "suite": "Suite 449",
    "city": "Bartholomebury",
    "zipcode": "76495-3109",
    "phone": "(775)976-6794 x41206",
    "token": "1-770-736-8031 x56442",
    "website": "conrad.com",
    "birthday":"2017-01-01",
    "emailGmail":"Sincere@gmail.com",
    "spam":"1",
    "company": {
      "name": "Yost and Sons",
      "catchPhrase": "Switchable contextually-based project",
      "bs": "aggregate real-time technologies"
    }
  },
  {
    "id": 10,
    "name": "Clementina DuBuque",
    "username": "Moriah.Stanton",
    "email": "Rey.Padberg@karina.biz",
    "address": "Kattie Turnpike",
    "suite": "Suite 198",
    "city": "Lebsackbury",
    "zipcode": "31428-2261",
    "phone": "024-648-3804",
    "token": "1-770-736-8031 x56442",
    "website": "ambrose.net",
    "birthday":"2017-01-01",
    "emailGmail":"Sincere@gmail.com",
    "spam":"1",
    "company": {
      "name": "Hoeger LLC",
      "catchPhrase": "Centralized empowering task-force",
      "bs": "target end-to-end models"
    }
  }
]
